{
  "EDITOR_STATE": {
    "allProjectFiles": {
      "4bd1320c-687a-467a-a91f-b172f27e0caf": {
        "id": "4bd1320c-687a-467a-a91f-b172f27e0caf",
        "parent": null,
        "name": "indu-113-8-21.js",
        "type": "JS_LAMBDA",
        "isDirectory": false,
        "children": [],
        "isRemovable": true,
        "filePath": "indu-113-8-21.js",
        "cursor": {
          "lineNumber": 2,
          "column": 15
        },
        "config": {
          "runtime": "nodejs10.x",
          "handler": "handler",
          "timeout": 60,
          "memory": 128,
          "layers": [],
          "name": "indu113821"
        },
        "triggers": [],
        "lastUpdated": 1597995797100
      }
    },
    "openFiles": [
      "4bd1320c-687a-467a-a91f-b172f27e0caf"
    ],
    "currentFileId": "4bd1320c-687a-467a-a91f-b172f27e0caf",
    "resources": {},
    "customTemplate": {
      "syntax": "JSON",
      "overrideDefault": false,
      "dialect": null,
      "definitions": null
    },
    "envVariables": [
      {
        "lambdaId": "all",
        "varKey": "SIGMA_AWS_ACC_ID",
        "varValue": null,
        "shouldPersist": false,
        "displayOnly": false,
        "editable": false
      }
    ],
    "packageJSON": {
      "dependencies": {}
    }
  },
  "PROJECT_META": {
    "sigmaVersion": "1.4.2",
    "projectName": "indu-113-8-21",
    "projectDescription": "",
    "projectVersion": "1.0.0",
    "projectRegion": "us-east-1",
    "platform": "AWS",
    "language": "nodejs",
    "platformRegions": {},
    "lastSave": 1597995807003
  },
  "VCS_STATE": {
    "provider": "GitLab",
    "repo": {
      "name": "indu-113-8-21",
      "url": "https://gitlab.com/indunilSigma/indu-113-8-21"
    }
  }
}